{
  "formatVersion": 1,
  "database": {
    "version": 9,
    "identityHash": "e000244e863247502076e4ea029594cf",
    "entities": [
      {
        "tableName": "messages",
        "createSql": "CREATE TABLE IF NOT EXISTS `${TABLE_NAME}` (`id` TEXT NOT NULL, `user_id` TEXT, `room_id` TEXT, `text` TEXT NOT NULL, `text_html` TEXT, `createdAt` INTEGER, `sending_in_process` INTEGER NOT NULL, `image` TEXT NOT NULL, `image_width` INTEGER, `image_height` INTEGER, PRIMARY KEY(`id`))",
        "fields": [
          {
            "fieldPath": "id",
            "columnName": "id",
            "affinity": "TEXT",
            "notNull": true
          },
          {
            "fieldPath": "userID",
            "columnName": "user_id",
            "affinity": "TEXT",
            "notNull": false
          },
          {
            "fieldPath": "roomID",
            "columnName": "room_id",
            "affinity": "TEXT",
            "notNull": false
          },
          {
            "fieldPath": "text",
            "columnName": "text",
            "affinity": "TEXT",
            "notNull": true
          },
          {
            "fieldPath": "textHTML",
            "columnName": "text_html",
            "affinity": "TEXT",
            "notNull": false
          },
          {
            "fieldPath": "createdAt",
            "columnName": "createdAt",
            "affinity": "INTEGER",
            "notNull": false
          },
          {
            "fieldPath": "sendingInProcess",
            "columnName": "sending_in_process",
            "affinity": "INTEGER",
            "notNull": true
          },
          {
            "fieldPath": "image",
            "columnName": "image",
            "affinity": "TEXT",
            "notNull": true
          },
          {
            "fieldPath": "imageWidth",
            "columnName": "image_width",
            "affinity": "INTEGER",
            "notNull": false
          },
          {
            "fieldPath": "imageHeight",
            "columnName": "image_height",
            "affinity": "INTEGER",
            "notNull": false
          }
        ],
        "primaryKey": {
          "columnNames": [
            "id"
          ],
          "autoGenerate": false
        },
        "indices": [],
        "foreignKeys": []
      },
      {
        "tableName": "rooms",
        "createSql": "CREATE TABLE IF NOT EXISTS `${TABLE_NAME}` (`id` TEXT NOT NULL, `dialogName` TEXT NOT NULL, `dialogPhoto` TEXT NOT NULL, `unreadCount` INTEGER NOT NULL, `topic` TEXT NOT NULL, `aliases` TEXT NOT NULL, `canonical_alias` TEXT NOT NULL, `fromToken` TEXT NOT NULL, `tag` TEXT, `notificationID` INTEGER, PRIMARY KEY(`id`))",
        "fields": [
          {
            "fieldPath": "id",
            "columnName": "id",
            "affinity": "TEXT",
            "notNull": true
          },
          {
            "fieldPath": "dialogName",
            "columnName": "dialogName",
            "affinity": "TEXT",
            "notNull": true
          },
          {
            "fieldPath": "dialogPhoto",
            "columnName": "dialogPhoto",
            "affinity": "TEXT",
            "notNull": true
          },
          {
            "fieldPath": "unreadCount",
            "columnName": "unreadCount",
            "affinity": "INTEGER",
            "notNull": true
          },
          {
            "fieldPath": "topic",
            "columnName": "topic",
            "affinity": "TEXT",
            "notNull": true
          },
          {
            "fieldPath": "aliases",
            "columnName": "aliases",
            "affinity": "TEXT",
            "notNull": true
          },
          {
            "fieldPath": "canonicalAlias",
            "columnName": "canonical_alias",
            "affinity": "TEXT",
            "notNull": true
          },
          {
            "fieldPath": "fromToken",
            "columnName": "fromToken",
            "affinity": "TEXT",
            "notNull": true
          },
          {
            "fieldPath": "tag",
            "columnName": "tag",
            "affinity": "TEXT",
            "notNull": false
          },
          {
            "fieldPath": "notificationID",
            "columnName": "notificationID",
            "affinity": "INTEGER",
            "notNull": false
          }
        ],
        "primaryKey": {
          "columnNames": [
            "id"
          ],
          "autoGenerate": false
        },
        "indices": [],
        "foreignKeys": []
      },
      {
        "tableName": "users",
        "createSql": "CREATE TABLE IF NOT EXISTS `${TABLE_NAME}` (`id` INTEGER PRIMARY KEY AUTOINCREMENT, `mxid` TEXT, `room_id` TEXT, `name` TEXT NOT NULL, `avatar` TEXT NOT NULL, `isOnline` INTEGER)",
        "fields": [
          {
            "fieldPath": "id",
            "columnName": "id",
            "affinity": "INTEGER",
            "notNull": false
          },
          {
            "fieldPath": "MXID",
            "columnName": "mxid",
            "affinity": "TEXT",
            "notNull": false
          },
          {
            "fieldPath": "roomID",
            "columnName": "room_id",
            "affinity": "TEXT",
            "notNull": false
          },
          {
            "fieldPath": "name",
            "columnName": "name",
            "affinity": "TEXT",
            "notNull": true
          },
          {
            "fieldPath": "avatar",
            "columnName": "avatar",
            "affinity": "TEXT",
            "notNull": true
          },
          {
            "fieldPath": "isOnline",
            "columnName": "isOnline",
            "affinity": "INTEGER",
            "notNull": false
          }
        ],
        "primaryKey": {
          "columnNames": [
            "id"
          ],
          "autoGenerate": true
        },
        "indices": [],
        "foreignKeys": []
      },
      {
        "tableName": "Sync",
        "createSql": "CREATE TABLE IF NOT EXISTS `${TABLE_NAME}` (`id` INTEGER PRIMARY KEY AUTOINCREMENT NOT NULL, `syncToken` TEXT NOT NULL)",
        "fields": [
          {
            "fieldPath": "id",
            "columnName": "id",
            "affinity": "INTEGER",
            "notNull": true
          },
          {
            "fieldPath": "syncToken",
            "columnName": "syncToken",
            "affinity": "TEXT",
            "notNull": true
          }
        ],
        "primaryKey": {
          "columnNames": [
            "id"
          ],
          "autoGenerate": true
        },
        "indices": [],
        "foreignKeys": []
      }
    ],
    "views": [],
    "setupQueries": [
      "CREATE TABLE IF NOT EXISTS room_master_table (id INTEGER PRIMARY KEY,identity_hash TEXT)",
      "INSERT OR REPLACE INTO room_master_table (id,identity_hash) VALUES(42, \"e000244e863247502076e4ea029594cf\")"
    ]
  }
}